material,Jul19,Company1,Company2,Company3
Crushed-rock,108.2,157,139,137
Sand-&-gravel,121,108,93,103
Coated-roadstone,113.2,166,183,165
Cement,125.3,196,156,138
Ready-mixed-concrete,121.9,194,123,141
Pre-cast-concrete-products,130.2,106,168,116
of-which-Blocks-bricks-tiles-&-flagstones,132.7,147,150,163
Concrete-reinforcing-bars-(steel),100.9,103,124,170
Ceramic-tiles,97.6,142,109,169
Imported-sawn-or-planed-wood,116.3,132,158,171
Imported-plywood,113.9,137,147,170
Builders-woodwork,128.1,185,137,144
of-whichA30-Doors-&-windows,127.9,169,155,131
Fabricated-structural-steel,110.5,107,174,183
Doors-&-windows,129.9,109,172,106
Screws-etc,111.9,168,93,168
Other-builders-ironmongery,119.4,109,169,141
Central-heating-boilers,129,146,132,179
Taps-and-Valves-for-sanitaryware,144,183,124,118
Metal-Sanitaryware,123.2,161,156,155
Pipes-and-fittings-(rigid),126.2,149,128,178
Pipes-and-fittings-(flexible),121.3,102,140,170
Sanitaryware,119.8,106,172,127
Doors-&-windows,123.8,143,93,134
